Introduction to predictive modeling by way of tidymodels
…
---
# broom methods

For `augment()` we require the data to predict and attach

```r
augment(glm_fit, shuffled_data %>% select(area_ch_1, avg_inten_ch_4, class))
```

```
## # A tibble: 50 x 6
##   area_ch_1 avg_inten_ch_4 class .pred_class .pred_PS .pred_WS
##       <int>          <dbl> <fct> <fct>          <dbl>    <dbl>
## 1       170           84.6 PS    PS             0.706    0.294
## 2       213          288.  WS    PS             0.549    0.451
## 3       386          103.  PS    PS             0.668    0.332
## 4       368           95.8 WS    PS             0.675    0.325
## 5       349          105.  WS    PS             0.671    0.329
## 6       203           91.5 PS    PS             0.697    0.303
## # … with 44 more rows
```
…
# If ncol(data) is large, you can use
# recipe(data = cell_train)
```

Based on the formula, the function assigns columns to roles of "outcome" or "predictor"

```r
summary(cell_rec)
```

```
## # A tibble: 57 x 4
##   variable       type    role      source  
##   <chr>          <chr>   <chr>     <chr>   
## 1 angle_ch_1     numeric predictor original
## 2 area_ch_1      numeric predictor original
## 3 avg_inten_ch_1 numeric predictor original
## 4 avg_inten_ch_2 numeric predictor original
## 5 avg_inten_ch_3 numeric predictor original
## 6 avg_inten_ch_4 numeric predictor original
## # … with 51 more rows
```
…
]

---
# Prediction

When `predict()` is called, the fitted recipe is applied to the new data before it is predicted by the model:

```r
predict(cell_fit, cell_test)
```

```
## # A tibble: 505 x 1
##   .pred_class
##   <fct>      
## 1 WS         
## 2 WS         
## 3 WS         
## 4 PS         
## 5 PS         
## 6 WS         
## # … with 499 more rows
```
…
After fitting the recipe, you might want access to the statistics from each step. We can pull the fitted recipe from the workflow and choose which step to tidy by number or `id`
]
.pull-right[

```r
cell_fit %>% 
  pull_workflow_prepped_recipe() %>% 
  tidy(number = 1) # For YJ trans
```

```
## # A tibble: 52 x 3
##   terms           value id              
##   <chr>           <dbl> <chr>           
## 1 angle_ch_1      0.781 YeoJohnson_VYicJ
## 2 area_ch_1      -0.952 YeoJohnson_VYicJ
## 3 avg_inten_ch_1 -0.324 YeoJohnson_VYicJ
## 4 avg_inten_ch_2  0.444 YeoJohnson_VYicJ
## 5 avg_inten_ch_3  0.205 YeoJohnson_VYicJ
## 6 avg_inten_ch_4  0.210 YeoJohnson_VYicJ
## # … with 46 more rows
```
…
# Cross-validating using rsample

rsample has a number of resampling functions built in. One is `vfold_cv()`, for performing V-Fold cross-validation like we've been discussing.

```r
set.seed(2453)

cv_splits <- vfold_cv(cell_train) #10-fold is default

cv_splits
```

```
## #  10-fold cross-validation 
## # A tibble: 10 x 2
##   splits             id    
##   <list>             <chr> 
## 1 <split [1362/152]> Fold01
## 2 <split [1362/152]> Fold02
## 3 <split [1362/152]> Fold03
## 4 <split [1362/152]> Fold04
## 5 <split [1363/151]> Fold05
## 6 <split [1363/151]> Fold06
## # … with 4 more rows
```
…
In tidymodels, there is a function called `fit_resamples()` that will do all of this for us:

```r
ctrl <- control_resamples(save_pred = TRUE)

cell_res <-
  cell_wflow %>% 
  fit_resamples(resamples = cv_splits, control = ctrl)
cell_res
```

```
## # Resampling results
## # 10-fold cross-validation 
## # A tibble: 10 x 5
##   splits             id     .metrics         .notes           .predictions      
##   <list>             <chr>  <list>           <list>           <list>            
## 1 <split [1362/152]> Fold01 <tibble [2 × 4]> <tibble [0 × 1]> <tibble [152 × 6]>
## 2 <split [1362/152]> Fold02 <tibble [2 × 4]> <tibble [0 × 1]> <tibble [152 × 6]>
## 3 <split [1362/152]> Fold03 <tibble [2 × 4]> <tibble [0 × 1]> <tibble [152 × 6]>
## 4 <split [1362/152]> Fold04 <tibble [2 × 4]> <tibble [0 × 1]> <tibble [152 × 6]>
## 5 <split [1363/151]> Fold05 <tibble [2 × 4]> <tibble [0 × 1]> <tibble [151 × 6]>
## 6 <split [1363/151]> Fold06 <tibble [2 × 4]> <tibble [0 × 1]> <tibble [151 × 6]>
## # … with 4 more rows
```
…
